<?xml version="1.0" standalone="no"?>
<!DOCTYPE svg PUBLIC "-//W3C//DTD SVG 20010904//EN"
 "http://www.w3.org/TR/2001/REC-SVG-20010904/DTD/svg10.dtd">
<svg version="1.0" xmlns="http://www.w3.org/2000/svg"
 width="128.000000pt" height="128.000000pt" viewBox="0 0 128.000000 128.000000"
 preserveAspectRatio="xMidYMid meet">
<metadata>
Created by potrace 1.11, written by Peter Selinger 2001-2013
</metadata>
<g transform="translate(0.000000,128.000000) scale(0.100000,-0.100000)"
fill="#000000" stroke="none">
<path d="M1125 1143 c-28 -37 -81 -105 -119 -151 l-70 -83 -102 102 -102 101
-155 -154 -156 -155 47 -46 c26 -26 52 -47 57 -47 6 0 54 43 109 95 54 52 100
95 101 95 2 0 48 -45 103 -100 l100 -101 24 23 c63 60 282 324 311 374 3 6
-18 34 -46 62 l-53 52 -49 -67z"/>
<path d="M679 661 l-54 -51 98 -98 c53 -53 97 -102 97 -107 -1 -10 -179 -156
-199 -163 -19 -6 -12 -19 40 -71 l51 -51 42 32 c69 54 157 130 223 193 l63 60
-153 154 -154 153 -54 -51z"/>
<path d="M405 433 c-55 -41 -168 -115 -252 -165 l-152 -91 53 -54 54 -54 49
27 c132 73 348 217 427 286 l39 34 -48 47 c-26 26 -53 47 -59 46 -6 0 -56 -34
-111 -76z"/>
</g>
</svg>
